{
     "ender-chest": [],
     "stats": {
          "saturation": 13,
          "potion-effects": "",
          "can-fly": false,
          "level": 0,
          "flying": false,
          "exhaustion": 2.8770902156829834,
          "health": 20,
          "exp": 0,
          "food": 20
     },
     "data-format": 1,
     "inventory": {
          "armor": [
               {
                    "item": "rO0ABXNyABpvcmcuYnVra2l0LnV0aWwuaW8uV3JhcHBlcvJQR+zxEm8FAgABTAADbWFwdAAPTGph\r\ndmEvdXRpbC9NYXA7eHBzcgA1Y29tLmdvb2dsZS5jb21tb24uY29sbGVjdC5JbW11dGFibGVNYXAk\r\nU2VyaWFsaXplZEZvcm0AAAAAAAAAAAIAAlsABGtleXN0ABNbTGphdmEvbGFuZy9PYmplY3Q7WwAG\r\ndmFsdWVzcQB+AAR4cHVyABNbTGphdmEubGFuZy5PYmplY3Q7kM5YnxBzKWwCAAB4cAAAAAR0AAI9\r\nPXQABHR5cGV0AAZkYW1hZ2V0AAZhbW91bnR1cQB+AAYAAAAEdAAeb3JnLmJ1a2tpdC5pbnZlbnRv\r\ncnkuSXRlbVN0YWNrdAADQUlSc3IAD2phdmEubGFuZy5TaG9ydGhNNxM0YNpSAgABUwAFdmFsdWV4\r\ncgAQamF2YS5sYW5nLk51bWJlcoaslR0LlOCLAgAAeHD//3NyABFqYXZhLmxhbmcuSW50ZWdlchLi\r\noKT3gYc4AgABSQAFdmFsdWV4cQB+ABAAAAAA\r\n",
                    "index": 0
               },
               {
                    "item": "rO0ABXNyABpvcmcuYnVra2l0LnV0aWwuaW8uV3JhcHBlcvJQR+zxEm8FAgABTAADbWFwdAAPTGph\r\ndmEvdXRpbC9NYXA7eHBzcgA1Y29tLmdvb2dsZS5jb21tb24uY29sbGVjdC5JbW11dGFibGVNYXAk\r\nU2VyaWFsaXplZEZvcm0AAAAAAAAAAAIAAlsABGtleXN0ABNbTGphdmEvbGFuZy9PYmplY3Q7WwAG\r\ndmFsdWVzcQB+AAR4cHVyABNbTGphdmEubGFuZy5PYmplY3Q7kM5YnxBzKWwCAAB4cAAAAAR0AAI9\r\nPXQABHR5cGV0AAZkYW1hZ2V0AAZhbW91bnR1cQB+AAYAAAAEdAAeb3JnLmJ1a2tpdC5pbnZlbnRv\r\ncnkuSXRlbVN0YWNrdAADQUlSc3IAD2phdmEubGFuZy5TaG9ydGhNNxM0YNpSAgABUwAFdmFsdWV4\r\ncgAQamF2YS5sYW5nLk51bWJlcoaslR0LlOCLAgAAeHD//3NyABFqYXZhLmxhbmcuSW50ZWdlchLi\r\noKT3gYc4AgABSQAFdmFsdWV4cQB+ABAAAAAA\r\n",
                    "index": 1
               },
               {
                    "item": "rO0ABXNyABpvcmcuYnVra2l0LnV0aWwuaW8uV3JhcHBlcvJQR+zxEm8FAgABTAADbWFwdAAPTGph\r\ndmEvdXRpbC9NYXA7eHBzcgA1Y29tLmdvb2dsZS5jb21tb24uY29sbGVjdC5JbW11dGFibGVNYXAk\r\nU2VyaWFsaXplZEZvcm0AAAAAAAAAAAIAAlsABGtleXN0ABNbTGphdmEvbGFuZy9PYmplY3Q7WwAG\r\ndmFsdWVzcQB+AAR4cHVyABNbTGphdmEubGFuZy5PYmplY3Q7kM5YnxBzKWwCAAB4cAAAAAR0AAI9\r\nPXQABHR5cGV0AAZkYW1hZ2V0AAZhbW91bnR1cQB+AAYAAAAEdAAeb3JnLmJ1a2tpdC5pbnZlbnRv\r\ncnkuSXRlbVN0YWNrdAADQUlSc3IAD2phdmEubGFuZy5TaG9ydGhNNxM0YNpSAgABUwAFdmFsdWV4\r\ncgAQamF2YS5sYW5nLk51bWJlcoaslR0LlOCLAgAAeHD//3NyABFqYXZhLmxhbmcuSW50ZWdlchLi\r\noKT3gYc4AgABSQAFdmFsdWV4cQB+ABAAAAAA\r\n",
                    "index": 2
               },
               {
                    "item": "rO0ABXNyABpvcmcuYnVra2l0LnV0aWwuaW8uV3JhcHBlcvJQR+zxEm8FAgABTAADbWFwdAAPTGph\r\ndmEvdXRpbC9NYXA7eHBzcgA1Y29tLmdvb2dsZS5jb21tb24uY29sbGVjdC5JbW11dGFibGVNYXAk\r\nU2VyaWFsaXplZEZvcm0AAAAAAAAAAAIAAlsABGtleXN0ABNbTGphdmEvbGFuZy9PYmplY3Q7WwAG\r\ndmFsdWVzcQB+AAR4cHVyABNbTGphdmEubGFuZy5PYmplY3Q7kM5YnxBzKWwCAAB4cAAAAAR0AAI9\r\nPXQABHR5cGV0AAZkYW1hZ2V0AAZhbW91bnR1cQB+AAYAAAAEdAAeb3JnLmJ1a2tpdC5pbnZlbnRv\r\ncnkuSXRlbVN0YWNrdAADQUlSc3IAD2phdmEubGFuZy5TaG9ydGhNNxM0YNpSAgABUwAFdmFsdWV4\r\ncgAQamF2YS5sYW5nLk51bWJlcoaslR0LlOCLAgAAeHD//3NyABFqYXZhLmxhbmcuSW50ZWdlchLi\r\noKT3gYc4AgABSQAFdmFsdWV4cQB+ABAAAAAA\r\n",
                    "index": 3
               }
          ],
          "inventory": [
               {
                    "item": "rO0ABXNyABpvcmcuYnVra2l0LnV0aWwuaW8uV3JhcHBlcvJQR+zxEm8FAgABTAADbWFwdAAPTGph\r\ndmEvdXRpbC9NYXA7eHBzcgA1Y29tLmdvb2dsZS5jb21tb24uY29sbGVjdC5JbW11dGFibGVNYXAk\r\nU2VyaWFsaXplZEZvcm0AAAAAAAAAAAIAAlsABGtleXN0ABNbTGphdmEvbGFuZy9PYmplY3Q7WwAG\r\ndmFsdWVzcQB+AAR4cHVyABNbTGphdmEubGFuZy5PYmplY3Q7kM5YnxBzKWwCAAB4cAAAAAN0AAI9\r\nPXQABHR5cGV0AARtZXRhdXEAfgAGAAAAA3QAHm9yZy5idWtraXQuaW52ZW50b3J5Lkl0ZW1TdGFj\r\na3QACk5PVEVfQkxPQ0tzcQB+AABzcQB+AAN1cQB+AAYAAAAGcQB+AAh0AAltZXRhLXR5cGV0AAxk\r\naXNwbGF5LW5hbWV0AARsb3JldAALVW5icmVha2FibGV0AAlJdGVtRmxhZ3N1cQB+AAYAAAAGdAAI\r\nSXRlbU1ldGF0AAtUSUxFX0VOVElUWXQAC8KnNcKnbFJhZGlvc3IANmNvbS5nb29nbGUuY29tbW9u\r\nLmNvbGxlY3QuSW1tdXRhYmxlTGlzdCRTZXJpYWxpemVkRm9ybQAAAAAAAAAAAgABWwAIZWxlbWVu\r\ndHNxAH4ABHhwdXEAfgAGAAAAAXQAFMKnN0VzdGFjaW9uIGRlIHJhZGlvc3IAEWphdmEubGFuZy5C\r\nb29sZWFuzSBygNWc+u4CAAFaAAV2YWx1ZXhwAXNyABFqYXZhLnV0aWwuSGFzaFNldLpEhZWWuLc0\r\nAwAAeHB3DAAAABA/QAAAAAAABnQADkhJREVfUExBQ0VEX09OdAANSElERV9FTkNIQU5UU3QAEEhJ\r\nREVfVU5CUkVBS0FCTEV0ABNISURFX1BPVElPTl9FRkZFQ1RTdAAPSElERV9BVFRSSUJVVEVTdAAN\r\nSElERV9ERVNUUk9ZU3g=\r\n",
                    "index": 0
               },
               {
                    "item": "rO0ABXNyABpvcmcuYnVra2l0LnV0aWwuaW8uV3JhcHBlcvJQR+zxEm8FAgABTAADbWFwdAAPTGph\r\ndmEvdXRpbC9NYXA7eHBzcgA1Y29tLmdvb2dsZS5jb21tb24uY29sbGVjdC5JbW11dGFibGVNYXAk\r\nU2VyaWFsaXplZEZvcm0AAAAAAAAAAAIAAlsABGtleXN0ABNbTGphdmEvbGFuZy9PYmplY3Q7WwAG\r\ndmFsdWVzcQB+AAR4cHVyABNbTGphdmEubGFuZy5PYmplY3Q7kM5YnxBzKWwCAAB4cAAAAAN0AAI9\r\nPXQABHR5cGV0AARtZXRhdXEAfgAGAAAAA3QAHm9yZy5idWtraXQuaW52ZW50b3J5Lkl0ZW1TdGFj\r\na3QAB0NPTVBBU1NzcQB+AABzcQB+AAN1cQB+AAYAAAAGcQB+AAh0AAltZXRhLXR5cGV0AAxkaXNw\r\nbGF5LW5hbWV0AARsb3JldAALVW5icmVha2FibGV0AAlJdGVtRmxhZ3N1cQB+AAYAAAAGdAAISXRl\r\nbU1ldGF0AApVTlNQRUNJRklDdAAPwqdjwqdsTmF2ZWdhZG9yc3IANmNvbS5nb29nbGUuY29tbW9u\r\nLmNvbGxlY3QuSW1tdXRhYmxlTGlzdCRTZXJpYWxpemVkRm9ybQAAAAAAAAAAAgABWwAIZWxlbWVu\r\ndHNxAH4ABHhwdXEAfgAGAAAAAXQABsKnN0dQU3NyABFqYXZhLmxhbmcuQm9vbGVhbs0gcoDVnPru\r\nAgABWgAFdmFsdWV4cAFzcgARamF2YS51dGlsLkhhc2hTZXS6RIWVlri3NAMAAHhwdwwAAAAQP0AA\r\nAAAAAAZ0AA5ISURFX1BMQUNFRF9PTnQADUhJREVfRU5DSEFOVFN0ABBISURFX1VOQlJFQUtBQkxF\r\ndAATSElERV9QT1RJT05fRUZGRUNUU3QAD0hJREVfQVRUUklCVVRFU3QADUhJREVfREVTVFJPWVN4\r\n",
                    "index": 4
               },
               {
                    "item": "rO0ABXNyABpvcmcuYnVra2l0LnV0aWwuaW8uV3JhcHBlcvJQR+zxEm8FAgABTAADbWFwdAAPTGph\r\ndmEvdXRpbC9NYXA7eHBzcgA1Y29tLmdvb2dsZS5jb21tb24uY29sbGVjdC5JbW11dGFibGVNYXAk\r\nU2VyaWFsaXplZEZvcm0AAAAAAAAAAAIAAlsABGtleXN0ABNbTGphdmEvbGFuZy9PYmplY3Q7WwAG\r\ndmFsdWVzcQB+AAR4cHVyABNbTGphdmEubGFuZy5PYmplY3Q7kM5YnxBzKWwCAAB4cAAAAAN0AAI9\r\nPXQABHR5cGV0AARtZXRhdXEAfgAGAAAAA3QAHm9yZy5idWtraXQuaW52ZW50b3J5Lkl0ZW1TdGFj\r\na3QAC05FVEhFUl9TVEFSc3EAfgAAc3EAfgADdXEAfgAGAAAABnEAfgAIdAAJbWV0YS10eXBldAAM\r\nZGlzcGxheS1uYW1ldAAEbG9yZXQAC1VuYnJlYWthYmxldAAJSXRlbUZsYWdzdXEAfgAGAAAABnQA\r\nCEl0ZW1NZXRhdAAKVU5TUEVDSUZJQ3QADcKnZMKnbEdhZGdldHNzcgA2Y29tLmdvb2dsZS5jb21t\r\nb24uY29sbGVjdC5JbW11dGFibGVMaXN0JFNlcmlhbGl6ZWRGb3JtAAAAAAAAAAACAAFbAAhlbGVt\r\nZW50c3EAfgAEeHB1cQB+AAYAAAABdAASwqc3TWVudSBkZSBnYWRnZXRzc3IAEWphdmEubGFuZy5C\r\nb29sZWFuzSBygNWc+u4CAAFaAAV2YWx1ZXhwAXNyABFqYXZhLnV0aWwuSGFzaFNldLpEhZWWuLc0\r\nAwAAeHB3DAAAABA/QAAAAAAABnQADkhJREVfUExBQ0VEX09OdAANSElERV9FTkNIQU5UU3QAEEhJ\r\nREVfVU5CUkVBS0FCTEV0ABNISURFX1BPVElPTl9FRkZFQ1RTdAAPSElERV9BVFRSSUJVVEVTdAAN\r\nSElERV9ERVNUUk9ZU3g=\r\n",
                    "index": 8
               }
          ]
     }
}