{
     "ender-chest": [],
     "stats": {
          "saturation": 20,
          "potion-effects": "",
          "can-fly": true,
          "level": 2,
          "flying": true,
          "exhaustion": 0.010300000198185444,
          "health": 20,
          "exp": 0,
          "food": 20
     },
     "data-format": 1,
     "inventory": {
          "armor": [
               {
                    "item": "rO0ABXNyABpvcmcuYnVra2l0LnV0aWwuaW8uV3JhcHBlcvJQR+zxEm8FAgABTAADbWFwdAAPTGph\r\ndmEvdXRpbC9NYXA7eHBzcgA1Y29tLmdvb2dsZS5jb21tb24uY29sbGVjdC5JbW11dGFibGVNYXAk\r\nU2VyaWFsaXplZEZvcm0AAAAAAAAAAAIAAlsABGtleXN0ABNbTGphdmEvbGFuZy9PYmplY3Q7WwAG\r\ndmFsdWVzcQB+AAR4cHVyABNbTGphdmEubGFuZy5PYmplY3Q7kM5YnxBzKWwCAAB4cAAAAAR0AAI9\r\nPXQABHR5cGV0AAZkYW1hZ2V0AAZhbW91bnR1cQB+AAYAAAAEdAAeb3JnLmJ1a2tpdC5pbnZlbnRv\r\ncnkuSXRlbVN0YWNrdAADQUlSc3IAD2phdmEubGFuZy5TaG9ydGhNNxM0YNpSAgABUwAFdmFsdWV4\r\ncgAQamF2YS5sYW5nLk51bWJlcoaslR0LlOCLAgAAeHD//3NyABFqYXZhLmxhbmcuSW50ZWdlchLi\r\noKT3gYc4AgABSQAFdmFsdWV4cQB+ABAAAAAA\r\n",
                    "index": 0
               },
               {
                    "item": "rO0ABXNyABpvcmcuYnVra2l0LnV0aWwuaW8uV3JhcHBlcvJQR+zxEm8FAgABTAADbWFwdAAPTGph\r\ndmEvdXRpbC9NYXA7eHBzcgA1Y29tLmdvb2dsZS5jb21tb24uY29sbGVjdC5JbW11dGFibGVNYXAk\r\nU2VyaWFsaXplZEZvcm0AAAAAAAAAAAIAAlsABGtleXN0ABNbTGphdmEvbGFuZy9PYmplY3Q7WwAG\r\ndmFsdWVzcQB+AAR4cHVyABNbTGphdmEubGFuZy5PYmplY3Q7kM5YnxBzKWwCAAB4cAAAAAR0AAI9\r\nPXQABHR5cGV0AAZkYW1hZ2V0AAZhbW91bnR1cQB+AAYAAAAEdAAeb3JnLmJ1a2tpdC5pbnZlbnRv\r\ncnkuSXRlbVN0YWNrdAADQUlSc3IAD2phdmEubGFuZy5TaG9ydGhNNxM0YNpSAgABUwAFdmFsdWV4\r\ncgAQamF2YS5sYW5nLk51bWJlcoaslR0LlOCLAgAAeHD//3NyABFqYXZhLmxhbmcuSW50ZWdlchLi\r\noKT3gYc4AgABSQAFdmFsdWV4cQB+ABAAAAAA\r\n",
                    "index": 1
               },
               {
                    "item": "rO0ABXNyABpvcmcuYnVra2l0LnV0aWwuaW8uV3JhcHBlcvJQR+zxEm8FAgABTAADbWFwdAAPTGph\r\ndmEvdXRpbC9NYXA7eHBzcgA1Y29tLmdvb2dsZS5jb21tb24uY29sbGVjdC5JbW11dGFibGVNYXAk\r\nU2VyaWFsaXplZEZvcm0AAAAAAAAAAAIAAlsABGtleXN0ABNbTGphdmEvbGFuZy9PYmplY3Q7WwAG\r\ndmFsdWVzcQB+AAR4cHVyABNbTGphdmEubGFuZy5PYmplY3Q7kM5YnxBzKWwCAAB4cAAAAAR0AAI9\r\nPXQABHR5cGV0AAZkYW1hZ2V0AAZhbW91bnR1cQB+AAYAAAAEdAAeb3JnLmJ1a2tpdC5pbnZlbnRv\r\ncnkuSXRlbVN0YWNrdAADQUlSc3IAD2phdmEubGFuZy5TaG9ydGhNNxM0YNpSAgABUwAFdmFsdWV4\r\ncgAQamF2YS5sYW5nLk51bWJlcoaslR0LlOCLAgAAeHD//3NyABFqYXZhLmxhbmcuSW50ZWdlchLi\r\noKT3gYc4AgABSQAFdmFsdWV4cQB+ABAAAAAA\r\n",
                    "index": 2
               },
               {
                    "item": "rO0ABXNyABpvcmcuYnVra2l0LnV0aWwuaW8uV3JhcHBlcvJQR+zxEm8FAgABTAADbWFwdAAPTGph\r\ndmEvdXRpbC9NYXA7eHBzcgA1Y29tLmdvb2dsZS5jb21tb24uY29sbGVjdC5JbW11dGFibGVNYXAk\r\nU2VyaWFsaXplZEZvcm0AAAAAAAAAAAIAAlsABGtleXN0ABNbTGphdmEvbGFuZy9PYmplY3Q7WwAG\r\ndmFsdWVzcQB+AAR4cHVyABNbTGphdmEubGFuZy5PYmplY3Q7kM5YnxBzKWwCAAB4cAAAAAR0AAI9\r\nPXQABHR5cGV0AAZkYW1hZ2V0AAZhbW91bnR1cQB+AAYAAAAEdAAeb3JnLmJ1a2tpdC5pbnZlbnRv\r\ncnkuSXRlbVN0YWNrdAADQUlSc3IAD2phdmEubGFuZy5TaG9ydGhNNxM0YNpSAgABUwAFdmFsdWV4\r\ncgAQamF2YS5sYW5nLk51bWJlcoaslR0LlOCLAgAAeHD//3NyABFqYXZhLmxhbmcuSW50ZWdlchLi\r\noKT3gYc4AgABSQAFdmFsdWV4cQB+ABAAAAAA\r\n",
                    "index": 3
               }
          ],
          "inventory": []
     }
}